PIPING HOT DATA: Estimating correlations adjusted for group membership
…
To reduce the scope and simplify, I am going to examine a reduced set of variables from pop, rock, or rap songs in 2019. Our goal is to understand which of energy, speechiness, acousticness, instrumentalness, liveness, and valence have the strongest association with danceability.

# initial data prep ----
dat <- dat_raw %>% 
  mutate(year = str_sub(track_album_release_date, start = 1, end = 4) %>% as.numeric) %>% 
  filter(playlist_genre %in% c("pop", "rock", "rap")) %>%
  filter(year == 2019) %>% 
  dplyr::select(track_id, playlist_genre, danceability, energy, speechiness, acousticness, instrumentalness, liveness, valence) %>% 
  # create an additional variable for genre to be used later ----
  mutate(music_category = playlist_genre) 

dat

# A tibble: 3,774 x 10
   track_id             playlist_genre danceability energy speechiness
   <chr>                <chr>                 <dbl>  <dbl>       <dbl>
 1 6f807x0ima9a1j3VPbc~ pop                   0.748  0.916      0.0583
 2 0r7CVbZTWZgbTCYdfa2~ pop                   0.726  0.815      0.0373
 3 1z1Hg7Vb0AhHDiEmnDE~ pop                   0.675  0.931      0.0742
 4 75FpbthrwQmzHlBJLuG~ pop                   0.718  0.93       0.102 
 5 1e8PAfcKUYoKkxPhrHq~ pop                   0.65   0.833      0.0359
 6 7fvUMiyapMsRRxr07cU~ pop                   0.675  0.919      0.127 
 7 2OAylPUDDfwRGfe0lYq~ pop                   0.449  0.856      0.0623
 8 6b1RNvAcJjQH73eZO4B~ pop                   0.542  0.903      0.0434
 9 7bF6tCO3gFb8INrEDcj~ pop                   0.594  0.935      0.0565
10 1IXGILkPm0tOCNeq00k~ pop                   0.642  0.818      0.032 
# ... with 3,764 more rows, and 5 more variables: acousticness <dbl>,
#   instrumentalness <dbl>, liveness <dbl>, valence <dbl>,
#   music_category <chr>
…
