PIPING HOT DATA: Polished summary tables in R with gtsummary
…
Then I keep just two years of data for comparison on three question.

dat <- dat_raw %>% 
  # two most recent years ----
  dplyr::filter(year %in% c(2015, 2017)) %>% 
  # a few variables
  dplyr::select(record, year, stheight, q12, q69) 

Here is a quick preview of the data.

# print data for viewing----
dat

# A tibble: 30,389 x 5
    record  year stheight              q12                       q69
     <dbl> <dbl>    <dbl>        <dbl+lbl>                 <dbl+lbl>
 1 1349684  2015       NA NA                3 [Stay the same weight]
 2 1349685  2015       NA  1 [0 days]       3 [Stay the same weight]
 3 1349686  2015       NA NA               NA                       
 4 1349687  2015       NA  1 [0 days]       1 [Lose weight]         
 5 1349688  2015       NA NA                2 [Gain weight]         
 6 1349689  2015       NA  1 [0 days]       3 [Stay the same weight]
 7 1349690  2015       NA NA                2 [Gain weight]         
 8 1349691  2015       NA  1 [0 days]       1 [Lose weight]         
 9 1349692  2015       NA  3 [2 or 3 days]  1 [Lose weight]         
10 1349693  2015       NA  1 [0 days]       3 [Stay the same weight]
# ... with 30,379 more rows
…
