Leveraging labelled data in R
…
You don’t need to get into the weeds of this to work effectively with labelled data, but knowing this can help troubleshoot errors.

Viewing labelled features

Beyond the dictionary, labelled features can also be seen when working with your data interactively. The console simultaneously prints value codes and labels side by side, with the code first followed by the label in brackets.

dat_raw %>% 
  dplyr::select(q8, q11, q12) 

# A tibble: 203,663 x 3
                      q8       q11                 q12
               <dbl+lbl> <dbl+lbl>           <dbl+lbl>
 1  2 [Rarely]                  NA  4 [4 or 5 days]   
 2 NA                           NA NA                 
 3  4 [Most of the time]        NA  3 [2 or 3 days]   
 4  4 [Most of the time]        NA  5 [6 or more days]
 5  1 [Never]                   NA  5 [6 or more days]
 6  1 [Never]                   NA  1 [0 days]        
 7  3 [Sometimes]               NA  2 [1 day]         
 8  5 [Always]                  NA  1 [0 days]        
 9  4 [Most of the time]        NA  5 [6 or more days]
10  4 [Most of the time]        NA NA                 
# ... with 203,653 more rows
…
Function(s): sjlabelled::label_to_colnames()

Example

For this example, I reduce the data set to 2017 records only and select three variables related to carrying weapons and safety, all of which are measured on the same scale.

# retain info on weapons and safety for 2017 ----
dat_2017 <- dat_raw %>% 
  dplyr::filter(year == 2017) %>% 
  dplyr::select(record, q12, q13, q15) 

# preview data ----
dat_2017

# A tibble: 14,765 x 4
    record                q12        q13                q15
     <dbl>          <dbl+lbl>  <dbl+lbl>          <dbl+lbl>
 1 1509749 5 [6 or more days] 1 [0 days] 1 [0 days]        
 2 1509750 1 [0 days]         1 [0 days] 1 [0 days]        
 3 1509751 1 [0 days]         1 [0 days] 3 [2 or 3 days]   
 4 1509752 1 [0 days]         1 [0 days] 1 [0 days]        
 5 1509753 1 [0 days]         1 [0 days] 1 [0 days]        
 6 1509754 1 [0 days]         1 [0 days] 2 [1 day]         
 7 1509755 5 [6 or more days] 1 [0 days] 5 [6 or more days]
 8 1509756 1 [0 days]         1 [0 days] 1 [0 days]        
 9 1509757 1 [0 days]         1 [0 days] 1 [0 days]        
10 1509758 1 [0 days]         1 [0 days] 1 [0 days]        
# ... with 14,755 more rows
…
