PIPING HOT DATA: Exporting editable ggplot graphics to PowerPoint with officer and purrr
…
This work follows up on blog posts by Laurens Geffert, Len Kiefer, and Bruno Rodrigues, which were fantastic resources to help me get started. The officer package enacted changes in version 0.3.11(?) which necessitate updates to these methods (see Acknowledgements). In addition, Amber Thomas outlined a purrr work flow that resonates with me.

I start with a table outlining the 56 combinations of color and clarity.

# tibble of all possible combinations ----
diamonds_grid <- diamonds %>% 
  count(color, clarity) %>% 
  # for mapping, we need input values to be character ----
  mutate_all(as.character)

# view values of grid ----
diamonds_grid

# A tibble: 56 x 3
   color clarity n    
   <chr> <chr>   <chr>
 1 D     I1      42   
 2 D     SI2     1370 
 3 D     SI1     2083 
 4 D     VS2     1697 
 5 D     VS1     705  
 6 D     VVS2    553  
 7 D     VVS1    252  
 8 D     IF      73   
 9 E     I1      102  
10 E     SI2     1713 
# ... with 46 more rows
…
