Polished summary tables in R with gtsummary
…
Then I keep just two years of data for comparison on three question.

dat <- dat_raw %>% 
  # two most recent years ----
  dplyr::filter(year %in% c(2015, 2017)) %>% 
  # a few variables
  dplyr::select(record, year, q12, stheight) 

Here is a quick preview of the data.

# print data for viewing----
dat

# A tibble: 30,389 x 4
    record  year              q12 stheight
     <dbl> <dbl>        <dbl+lbl>    <dbl>
 1 1349684  2015 NA                     NA
 2 1349685  2015  1 [0 days]            NA
 3 1349686  2015 NA                     NA
 4 1349687  2015  1 [0 days]            NA
 5 1349688  2015 NA                     NA
 6 1349689  2015  1 [0 days]            NA
 7 1349690  2015 NA                     NA
 8 1349691  2015  1 [0 days]            NA
 9 1349692  2015  3 [2 or 3 days]       NA
10 1349693  2015  1 [0 days]            NA
# ... with 30,379 more rows
…
